3. Найти/выделить натуральные циклы

B1:                         +---------------------------------------------+   +---------------------------------------------+
    1: i ← 0                | Граф потока управления                      |   | Обратный граф потока управления             |
    2: j ← 0                +---------------------------------------------+   +---------------------------------------------+
    3: goto L5              |                   +-----+                   |   |                   +-----+                   |
B2:                         |                   |Entry|                   |   |                   |Entry|                   |
    4: L4:                  |                   +--+--+                   |   |                   +--+--+                   |
    5: goto L2              |                      v                      |   |                      ^                      |
B3:                         |                    +---+                    |   |                    +---+                    |
    6: L1:                  |                    |B 1|                    |   |                    |B 1|                    |
    7: j ← -, j, 1          |                    +-+-+                    |   |                    +-+-+                    |
    8: t1 ← *, 4, j         |                      v                      |   |                      ^                      |
    9: j ← d[t1]            |                    +---+                    |   |                    +---+                    |
B4:                         |     +--------------|B11|<-------------+     |   |     +------------->|B11|--------------+     |
    10: L2:                 |     |              +-+-+              |     |   |     |              +-+-+              |     |
    11: ifTrue j > 0        |     |                v                |     |   |     |                ^                |     |
    12:     goto L7         |     |              +---+              |     |   |     |              +---+              |     |
    13: else                |     |              |B 2|              |     |   |     |              |B 2|              |     |
    14:     goto L3         |     |    +---+     +-+-+              |     |   |     |    +---+     +-+-+              |     |
B5:                         |     |    |B 3|--     v                |     |   |     |    |B 3|<-     ^                |     |
    15: L7:                 |     |    +---+  \  +-+-+              |     |   |     |    +---+  \  +-+-+              |     |
    16: t2 ← *, 4, j        |     |      ^     ->|B 4|              |     |   |     |      |     --|B 4|              |     |
    17: t3 ← p[t2]          |     |      |       +---+              |     |   |     |      v       +---+              |     |
    18: t4 ← *, 4, i        |     |    +-+-+      / \               |     |   |     |    +---+      ^ ^               |     |
    19: t5 ← s[t4]          |     |    |B 5|<-----   v              |     |   |     |    |B 5|-----/   \              |     |
    20: ifTrue t3 != t5     |     |    +---+       +---+            |     |   |     |    +---+       +---+            |     |
    21:     goto L1         |     |      \-------->|B 6|            |     |   |     |      ^---------|B 6|            |     |
    22: else                |     |                +---+            |     |   |     |                +---+            |     |
    23:     goto L3         |     |               /     \           |     |   |     |                ^   ^            |     |
B6:                         |     |              |       |          |     |   |     |               /     \           |     |
    24: L3:                 |     |              v       v          |     |   |     |              /       \          |     |
    25: t6 ← *, 4, j        |     |            +---+   +---+        |     |   |     |            +---+   +---+        |     |
    26: t7 ← p[t6]          |     |            |B 7+-->|B 8|        |     |   |     |            |B 7|<--|B 8|        |     |
    27: t8 ← *, 4, i        |     |            +---+   +---+        |     |   |     |            +---+   +---+        |     |
    28: t9 ← p[t8]          |     |                   /     \       |     |   |     |                    ^   ^        |     |
    29: ifTrue t7 != t9     |     |                  |       |      |     |   |     |                   /     \       |     |
    30:     goto L8         |     v                  v       v      |     |   |     |                  /       \      |     |
    31: else                |   +-+-+              +---+   +---+    |     |   |   +-+-+              +---+   +---+    |     |
    32:     goto L9         |   |B12|              |B 9|-->|B10|----+     |   |   |B12|              |B 9|<--|B10|<---+     |
B7:                         |   +-+-+              +---+   +-+-+          |   |   +-+-+              +---+   +-+-+          |
    33: L8:                 |     |                                       |   |     ^                                       |
    34: j ← +, j, 1         |     +----------------+                      |   |     +----------------+                      |
B8:                         |                      v                      |   |                      |                      |
    35: L9:                 |                   +--+-+                    |   |                   +--+-+                    |
    36: ifTrue j == M       |                   |Exit|                    |   |                   |Exit|                    |
    37:     goto L10        |                   +----+                    |   |                   +----+                    |
    38: else                +---------------------------------------------+   +---------------------------------------------+
    39:     goto L11        
B9:                         
    40: L10:                
    41: t10 ← -, i, j 
    42: t11 ← +, t10, 1 
    43: return t11 
B10:
    44: L11: 
    45: t12 ← -1 
    46: return t12 
    47: i ← +, i, 1 
B11:
    48: L5: 
    49: ifTrue i < N 
    50:     goto L4 
    51: else 
    52:     goto L6 
B12:
    53: L6: 

+-------------------------------------------------+------------------------------------------------+
| Обратное ребро B10 → B11                        | Обратное ребро B5 → B3                         |
+-------------------------------------------------+------------------------------------------------+
                                                  |
Пути от B10 к B11 в ОГПУ содержат узлы B2, B3,    | Пути от B5 к B3 в ОГПУ содержат узел B4
B4, B5, B6 B7, B8, B9                             |
                                                  |
+---------------------------------------------+   |  +---------------------------------------------+                                
| Граф потока управления                      |   |  | Граф потока управления                      |
+---------------------------------------------+   |  +---------------------------------------------+                                
|                   +-----+                   |   |  |                   +-----+                   |                                
|                   |Entry|                   |   |  |                   |Entry|                   |                                
|                   +--+--+                   |   |  |                   +--+--+                   |                                
|                      v                      |   |  |                      v                      |                                
|                    +---+                    |   |  |                    +---+                    |                                
|                    |B 1|                    |   |  |                    |B 1|                    |                                
|                    +-+-+                    |   |  |                    +-+-+                    |                                
|                      v                      |   |  |                      v                      |                                
|                    #####                    |   |  |                    +---+                    |                                
|     +--------------#B11#<#############+     |   |  |     +--------------|B11|<-------------+     |                                
|     |              #####              #     |   |  |     |              +-+-+              |     |                                
|     |                v                #     |   |  |     |                v                |     |                                
|     |              #####              #     |   |  |     |              +---+              |     |                                
|     |              #B 2#              #     |   |  |     |              |B 2|              |     |                                
|     |    #####     #####              #     |   |  |     |    #####     +-+-+              |     |                                
|     |    #B 3#--     v                #     |   |  |     |    #B 3#--     v                |     |                                
|     |    #####  \  #####              #     |   |  |     |    #####  \  #####              |     |                                
|     |      ^     ->#B 4#              #     |   |  |     |      ^     ->#B 4#              |     |                                
|     |      |       #####              #     |   |  |     |      #       #####              |     |                                
|     |    #####      / \               #     |   |  |     |    #####      / \               |     |                                
|     |    #B 5#<-----   v              #     |   |  |     |    #B 5#<-----   v              |     |                                
|     |    #####       #####            #     |   |  |     |    #####       +---+            |     |                                
|     |      \-------->#B 6#            #     |   |  |     |      \-------->|B 6|            |     |                                
|     |                #####            #     |   |  |     |                +---+            |     |                                
|     |               /     \           #     |   |  |     |               /     \           |     |                                
|     |              |       |          #     |   |  |     |              |       |          |     |                                
|     |              v       v          #     |   |  |     |              v       v          |     |                                
|     |            #####   #####        #     |   |  |     |            +---+   +---+        |     |                                
|     |            #B 7#-->#B 8#        #     |   |  |     |            |B 7+-->|B 8|        |     |                                
|     |            #####   #####        #     |   |  |     |            +---+   +---+        |     |                                
|     |                   /     \       #     |   |  |     |                   /     \       |     |                                
|     |                  |       |      #     |   |  |     |                  |       |      |     |                                
|     v                  v       v      #     |   |  |     v                  v       v      |     |                                
|   +-+-+              #####   #####    #     |   |  |   +-+-+              +---+   +---+    |     |                                
|   |B12|              #B 9#-->#B10#####+     |   |  |   |B12|              |B 9|-->|B10|----+     |                                
|   +-+-+              #####   #####          |   |  |   +-+-+              +---+   +-+-+          |                                
|     |                                       |   |  |     |                                       |                                
|     +----------------+                      |   |  |     +----------------+                      |                                
|                      v                      |   |  |                      v                      |                                
|                   +--+-+                    |   |  |                   +--+-+                    |                                
|                   |Exit|                    |   |  |                   |Exit|                    |
|                   +----+                    |   |  |                   +----+                    |
+---------------------------------------------+   |  +---------------------------------------------+
